ANOVA_part_2_lab_script
…
library(tidyverse)
library(afex)
library(emmeans)

The datafile is called ANOVA_lab2_data1.csv. We need to load our dataset and map it onto a variable were calling my_data.

my_data <- read_csv("ANOVA_lab2_data1.csv")

The data are from a 2 x 2 x 3 mixed design experiment where we measured peoples response times to maths questions that were either Easy or Hard, and to which they had to respond either under Time Pressure or under No Time Pressure. These are our first two factors and are repeated measures (i.e., everyone saw all 4 conditions). Our final factor is between subjects and corresponds to whether our participants were in one of three groups. The groups were Psychology Students, Maths Students, and Arts Students. We want to know where a participants perfomance on the maths questions under time pressure vs.not under time pressure is influenced by which one of these three groups they belong to. Conduct the appropriate ANOVA to answer this question.

Our datadiles looks like this:

my_data

## # A tibble: 288 x 5
##    Subject Difficulty Time_Pressure    RT Group              
##      <dbl> <chr>      <chr>         <dbl> <chr>              
##  1       1 Easy       Pressure        855 Psychology_Students
##  2       2 Easy       Pressure        956 Psychology_Students
##  3       3 Easy       Pressure       1038 Psychology_Students
##  4       4 Easy       Pressure        827 Psychology_Students
##  5       5 Easy       Pressure       1029 Psychology_Students
##  6       6 Easy       Pressure       1004 Psychology_Students
##  7       7 Easy       Pressure       1012 Psychology_Students
##  8       8 Easy       Pressure       1167 Psychology_Students
##  9       9 Easy       Pressure        817 Psychology_Students
## 10      10 Easy       Pressure       1190 Psychology_Students
## #  with 278 more rows

Lets set our three IV columns as factors and look at our data again - were going to pipe the datafile my_data and use mutate() to change each of the three variables to factors.

my_data <- my_data %>%
  mutate(Difficulty = factor(Difficulty)) %>%
  mutate(Time_Pressure = factor(Time_Pressure)) %>%
  mutate(Group = factor(Group))

my_data

## # A tibble: 288 x 5
##    Subject Difficulty Time_Pressure    RT Group              
##      <dbl> <fct>      <fct>         <dbl> <fct>              
##  1       1 Easy       Pressure        855 Psychology_Students
##  2       2 Easy       Pressure        956 Psychology_Students
##  3       3 Easy       Pressure       1038 Psychology_Students
##  4       4 Easy       Pressure        827 Psychology_Students
##  5       5 Easy       Pressure       1029 Psychology_Students
##  6       6 Easy       Pressure       1004 Psychology_Students
##  7       7 Easy       Pressure       1012 Psychology_Students
##  8       8 Easy       Pressure       1167 Psychology_Students
##  9       9 Easy       Pressure        817 Psychology_Students
## 10      10 Easy       Pressure       1190 Psychology_Students
## #  with 278 more rows
…
